{
  "reportName" : "Allure Report",
  "testRuns" : [ ],
  "statistic" : {
    "failed" : 0,
    "broken" : 0,
    "skipped" : 0,
    "passed" : 1,
    "unknown" : 0,
    "total" : 1
  },
  "time" : {
    "start" : 1659850992464,
    "stop" : 1659851002355,
    "duration" : 9891,
    "minDuration" : 9891,
    "maxDuration" : 9891,
    "sumDuration" : 9891
  }
}