{
  "uid" : "83edc06c07f9ae9e47eb6dd1b683e4e2",
  "name" : "packages",
  "children" : [ {
    "name" : "tests.checkExactCountOfSkillsQATest",
    "children" : [ {
      "name" : "checkExactCountOfSkills",
      "uid" : "c0e28e95f2450000",
      "parentUid" : "9a070775889bd7b6462771993b82e59d",
      "status" : "passed",
      "time" : {
        "start" : 1659850992464,
        "stop" : 1659851002355,
        "duration" : 9891
      },
      "flaky" : false,
      "newFailed" : false,
      "parameters" : [ ]
    } ],
    "uid" : "tests.checkExactCountOfSkillsQATest"
  } ]
}