{
  "uid" : "ab17fc5a4eb3bca4b216b548c7f9fcbc",
  "name" : "timeline",
  "children" : [ {
    "name" : "LAPTOP-QBAN5M53",
    "children" : [ {
      "name" : "23308@LAPTOP-QBAN5M53.main(1)",
      "children" : [ {
        "name" : "checkExactCountOfSkills",
        "uid" : "f8bb3b9c5448320a",
        "parentUid" : "8976d9bf75492a317ac6e2c3c448517d",
        "status" : "passed",
        "time" : {
          "start" : 1659845561393,
          "stop" : 1659845571992,
          "duration" : 10599
        },
        "flaky" : false,
        "newFailed" : false,
        "parameters" : [ ]
      } ],
      "uid" : "8976d9bf75492a317ac6e2c3c448517d"
    }, {
      "name" : "9012@LAPTOP-QBAN5M53.main(1)",
      "children" : [ {
        "name" : "checkExactCountOfSkills",
        "uid" : "5ba999747d86f38c",
        "parentUid" : "dcbf95375af5ce9a00b70addaf0fa817",
        "status" : "passed",
        "time" : {
          "start" : 1659845307145,
          "stop" : 1659845317967,
          "duration" : 10822
        },
        "flaky" : false,
        "newFailed" : false,
        "parameters" : [ ]
      } ],
      "uid" : "dcbf95375af5ce9a00b70addaf0fa817"
    }, {
      "name" : "28404@LAPTOP-QBAN5M53.main(1)",
      "children" : [ {
        "name" : "checkExactCountOfSkills",
        "uid" : "a95c5b7cd95c284d",
        "parentUid" : "10c74ba7a87d334d48d23596f453a60d",
        "status" : "passed",
        "time" : {
          "start" : 1659844197823,
          "stop" : 1659844209410,
          "duration" : 11587
        },
        "flaky" : false,
        "newFailed" : false,
        "parameters" : [ ]
      } ],
      "uid" : "10c74ba7a87d334d48d23596f453a60d"
    }, {
      "name" : "22152@LAPTOP-QBAN5M53.main(1)",
      "children" : [ {
        "name" : "checkExactCountOfSkills",
        "uid" : "2643ab83e82a8892",
        "parentUid" : "5b154d1c22725f8a818dbb44d8fc8845",
        "status" : "passed",
        "time" : {
          "start" : 1659850368021,
          "stop" : 1659850378718,
          "duration" : 10697
        },
        "flaky" : false,
        "newFailed" : false,
        "parameters" : [ ]
      } ],
      "uid" : "5b154d1c22725f8a818dbb44d8fc8845"
    }, {
      "name" : "26524@LAPTOP-QBAN5M53.main(1)",
      "children" : [ {
        "name" : "checkExactCountOfSkills",
        "uid" : "afdb3ce2bc0a12d2",
        "parentUid" : "76700b159c9e73122108bdbe33e01d85",
        "status" : "passed",
        "time" : {
          "start" : 1659846447365,
          "stop" : 1659846458801,
          "duration" : 11436
        },
        "flaky" : false,
        "newFailed" : false,
        "parameters" : [ ]
      } ],
      "uid" : "76700b159c9e73122108bdbe33e01d85"
    }, {
      "name" : "22656@LAPTOP-QBAN5M53.main(1)",
      "children" : [ {
        "name" : "checkExactCountOfSkills",
        "uid" : "c436bd81535a9b55",
        "parentUid" : "c8ce27031f6a4078aa6c5658a06ccc5a",
        "status" : "passed",
        "time" : {
          "start" : 1659842829691,
          "stop" : 1659842847350,
          "duration" : 17659
        },
        "flaky" : false,
        "newFailed" : false,
        "parameters" : [ ]
      } ],
      "uid" : "c8ce27031f6a4078aa6c5658a06ccc5a"
    }, {
      "name" : "29972@LAPTOP-QBAN5M53.main(1)",
      "children" : [ {
        "name" : "checkExactCountOfSkills",
        "uid" : "c0e28e95f2450000",
        "parentUid" : "d877d15f104eee611e9990d6939bd54c",
        "status" : "passed",
        "time" : {
          "start" : 1659850992464,
          "stop" : 1659851002355,
          "duration" : 9891
        },
        "flaky" : false,
        "newFailed" : false,
        "parameters" : [ ]
      } ],
      "uid" : "d877d15f104eee611e9990d6939bd54c"
    } ],
    "uid" : "c6c79ef200946037654d3c3030e9018c"
  } ]
}